04_Davis_Shannon_2018
…
  #for each sample size, and alpha
  group_by(samp_size, alpha) %>%
  
  #calculae type 2 error rate
  summarise(error_rate = sum(p>alpha)/n()) %>%
  
  ungroup() %>%
  
  #calculate power
  mutate(power = 1 - error_rate)

alpha_data

## # A tibble: 200 x 4
##    samp_size  alpha error_rate  power
##        <int>  <dbl>      <dbl>  <dbl>
##  1         1 0.01        0.913 0.0867
##  2         1 0.02        0.888 0.112 
##  3         1 0.03        0.87  0.13  
##  4         1 0.04        0.856 0.144 
##  5         1 0.05        0.840 0.160 
##  6         1 0.06        0.827 0.173 
##  7         1 0.0700      0.817 0.183 
##  8         1 0.08        0.803 0.197 
##  9         1 0.09        0.795 0.205 
## 10         1 0.10        0.786 0.215 
## # ... with 190 more rows
…
