06_Davis_Shannon_2018
…
31

a. Calculate a regression line that best describes the relationship between year of painting and portion size. What is the trend? How rapidly has portion size changed in paintings?

Jesus <- read_csv("../Data/chap17q31LastSupperPortionSize.csv")

## Parsed with column specification:
## cols(
##   portionSize = col_double(),
##   year = col_integer()
## )

Jesus

## # A tibble: 33 x 2
##    portionSize  year
##          <dbl> <int>
##  1        3.08   999
##  2        2.7   1004
##  3        2.14  1050
##  4        2.91  1098
##  5        3.69  1314
##  6        4.41  1314
##  7        3.51  1350
##  8        2.44  1309
##  9        3.21  1398
## 10        2.78  1400
## # ... with 23 more rows
…
