Midterm_Davis_Shannon_2018
…
#slope
pow_data_slope <- crossing(alpha_diff = c(0.001, 0.01, 0.05, 0.1),
                   size_diff = nrow(seals),
                   slope_diff = seq (0.001 ,0.003, 0.0001), 
                  intercept_diff = 115.767,
                   sigma_diff = 5.6805) %>%
                  
  rowwise() %>%
  mutate(power = pow_from_f_test(alpha = alpha_diff, 
                           slope = slope_diff)) %>%
  ungroup()

pow_data_slope

## # A tibble: 84 x 6
##    alpha_diff size_diff slope_diff intercept_diff sigma_diff power
##         <dbl>     <int>      <dbl>          <dbl>      <dbl> <dbl>
##  1      0.001      9665     0.001            116.       5.68 0.007
##  2      0.001      9665     0.0011           116.       5.68 0.009
##  3      0.001      9665     0.0012           116.       5.68 0.01 
##  4      0.001      9665     0.0013           116.       5.68 0.02 
##  5      0.001      9665     0.0014           116.       5.68 0.009
##  6      0.001      9665     0.0015           116.       5.68 0.02 
##  7      0.001      9665     0.0016           116.       5.68 0.03 
##  8      0.001      9665     0.0017           116.       5.68 0.036
##  9      0.001      9665     0.0018           116.       5.68 0.033
## 10      0.001      9665     0.0019           116.       5.68 0.041
## # ... with 74 more rows
…
###sigma

pow_data_sigma <- crossing(alpha_diff = c(0.001, 0.01, 0.05, 0.1),
                   sigma_diff = seq(3, 8, 1)) %>%
                  
  rowwise() %>%
  mutate(power = pow_from_f_test(alpha = alpha_diff, 
                           sigma = sigma_diff)) %>%
  ungroup()

pow_data_sigma

## # A tibble: 24 x 3
##    alpha_diff sigma_diff power
##         <dbl>      <dbl> <dbl>
##  1      0.001          3 0.541
##  2      0.001          4 0.247
##  3      0.001          5 0.125
##  4      0.001          6 0.061
##  5      0.001          7 0.055
##  6      0.001          8 0.021
##  7      0.01           3 0.86 
##  8      0.01           4 0.642
##  9      0.01           5 0.407
## 10      0.01           6 0.313
## # ... with 14 more rows
…
###intercept

pow_data_int <- crossing(alpha_diff = c(0.001, 0.01, 0.05, 0.1),
                  intercept_diff = seq(110,120, 1)) %>%
                  
  rowwise() %>%
  mutate(power = pow_from_f_test(alpha = alpha_diff, 
                           intercept = intercept_diff)) %>%
  ungroup()

pow_data_int

## # A tibble: 44 x 3
##    alpha_diff intercept_diff  power
##         <dbl>          <dbl>  <dbl>
##  1      0.001            110 0.0800
##  2      0.001            111 0.0820
##  3      0.001            112 0.0710
##  4      0.001            113 0.0840
##  5      0.001            114 0.0770
##  6      0.001            115 0.0960
##  7      0.001            116 0.0810
##  8      0.001            117 0.0950
##  9      0.001            118 0.0990
## 10      0.001            119 0.0900
## # ... with 34 more rows
…
###sample size

pow_data_size <- crossing(alpha_diff = c(0.001, 0.01, 0.05, 0.1),
                  size_diff = seq(5,40, 5)) %>%
                  
  rowwise() %>%
  mutate(power = pow_from_f_test(alpha = alpha_diff, 
                           samp_size =  size_diff)) %>%
  ungroup()

pow_data_size

## # A tibble: 32 x 3
##    alpha_diff size_diff  power
##         <dbl>     <dbl>  <dbl>
##  1      0.001         5 0.007 
##  2      0.001        10 0.0820
##  3      0.001        15 0.246 
##  4      0.001        20 0.485 
##  5      0.001        25 0.706 
##  6      0.001        30 0.842 
##  7      0.001        35 0.922 
##  8      0.001        40 0.956 
##  9      0.01          5 0.0710
## 10      0.01         10 0.332 
## # ... with 22 more rows
…
