Flashiness
…
The second problem is that there can be additional columns of data that cause the entire row to be false data.

FDOM[51902,]

## # A tibble: 1 x 9
##   Date      Time   `N/U` Count     y bad1  bad2  bad3  bad4 
##   <chr>     <time> <int> <int> <int> <chr> <chr> <chr> <chr>
## 1 7/30/2018 06:50    460    NA   460 88    541   <NA>  <NA>

The third problem is a result of the sensor being physically moved by debris causing it to read zero or close to zero. This can be seen when the count is less than ~ 100.

FDOM[51888:51800,c(1:6)]

## # A tibble: 89 x 6
##    Date      Time   `N/U` Count     y bad1 
##    <chr>     <time> <int> <int> <int> <chr>
##  1 7/30/2018 06:40    460    70   541 <NA> 
##  2 7/30/2018 06:40    460    77   542 <NA> 
##  3 7/30/2018    NA     NA   460    77 542  
##  4 7/30/2018 06:40    460    86   542 <NA> 
##  5 7/30/2018 06:40    460    74   542 <NA> 
##  6 7/30/2018 06:40    460    71   542 <NA> 
##  7 7/30/2018 06:40    460    77   542 <NA> 
##  8 7/30/2018 06:40    460    85   542 <NA> 
##  9 7/30/2018 06:40    460    74   542 <NA> 
## 10 7/30/2018 06:40    460    72   543 <NA> 
## # ... with 79 more rows
…
start <- Sample[1,7]%>%
  as.numeric()

start

## [1] 0.07037978

FDOM_15_Conc <- FDOM_15 %>%
  mutate(corrected = start)%>%
  mutate(conc = corrected*Count) %>%
  select(by15, conc)

FDOM_15_Conc

## # A tibble: 9,098 x 2
##    by15                 conc
##    <dttm>              <dbl>
##  1 2018-07-20 15:30:00  42.7
##  2 2018-07-20 15:45:00  43.5
##  3 2018-07-20 16:00:00  46.4
##  4 2018-07-20 16:15:00  44.2
##  5 2018-07-20 16:30:00  44.9
##  6 2018-07-20 16:45:00  44.7
##  7 2018-07-20 17:00:00  45.2
##  8 2018-07-20 17:15:00  45.1
##  9 2018-07-20 17:30:00  45.1
## 10 2018-07-20 17:45:00  45.3
## # ... with 9,088 more rows
…
Now we need to join all the data together and since they all have a by15 column this is very straigt forward. I chose to do an inner join to avoid any incomplete data. I did an outer join as well and they both have the same length.

library(caTools)
FDOM_Discharge <- inner_join(FDOM_15_Conc, Discharge_15, by = "by15") 

FDOM_Discharge_Rain <- inner_join(FDOM_Discharge, Rain_15, by = "by15")

FDOM_Discharge_Rain

## # A tibble: 9,090 x 4
##    by15                 conc Discharge  Rain
##    <dttm>              <dbl>     <dbl> <dbl>
##  1 2018-07-20 15:30:00  42.7      1.54     0
##  2 2018-07-20 15:45:00  43.5      1.52     0
##  3 2018-07-20 16:00:00  46.4      1.63     0
##  4 2018-07-20 16:15:00  44.2      1.59     0
##  5 2018-07-20 16:30:00  44.9      1.56     0
##  6 2018-07-20 16:45:00  44.7      1.52     0
##  7 2018-07-20 17:00:00  45.2      1.47     0
##  8 2018-07-20 17:15:00  45.1      1.51     0
##  9 2018-07-20 17:30:00  45.1      1.58     0
## 10 2018-07-20 17:45:00  45.3      1.53     0
## # ... with 9,080 more rows
…
